<?xml version="1.0" standalone="no"?>
<!DOCTYPE svg PUBLIC "-//W3C//DTD SVG 1.1//EN" "http://www.w3.org/Graphics/SVG/1.1/DTD/svg11.dtd" >
<svg xmlns="http://www.w3.org/2000/svg">
<metadata>
Created by FontForge 20120731 at Fri Jan  6 09:58:43 2017
 By admin
</metadata>
<defs>
<font id="iconfont" horiz-adv-x="1024" >
  <font-face 
    font-family="iconfont"
    font-weight="500"
    font-stretch="normal"
    units-per-em="1024"
    panose-1="2 0 6 3 0 0 0 0 0 0"
    ascent="896"
    descent="-128"
    x-height="792"
    bbox="0 -168 1152 896"
    underline-thickness="0"
    underline-position="0"
    unicode-range="U+0078-E640"
  />
<missing-glyph 
 />
    <glyph glyph-name=".notdef" 
 />
    <glyph glyph-name=".notdef" 
 />
    <glyph glyph-name=".null" horiz-adv-x="0" 
 />
    <glyph glyph-name="nonmarkingreturn" horiz-adv-x="341" 
 />
    <glyph glyph-name="x" unicode="x" horiz-adv-x="1001" 
d="M281 543q-27 -1 -53 -1h-83q-18 0 -36.5 -6t-32.5 -18.5t-23 -32t-9 -45.5v-76h912v41q0 16 -0.5 30t-0.5 18q0 13 -5 29t-17 29.5t-31.5 22.5t-49.5 9h-133v-97h-438v97zM955 310v-52q0 -23 0.5 -52t0.5 -58t-10.5 -47.5t-26 -30t-33 -16t-31.5 -4.5q-14 -1 -29.5 -0.5
t-29.5 0.5h-32l-45 128h-439l-44 -128h-29h-34q-20 0 -45 1q-25 0 -41 9.5t-25.5 23t-13.5 29.5t-4 30v167h911zM163 247q-12 0 -21 -8.5t-9 -21.5t9 -21.5t21 -8.5q13 0 22 8.5t9 21.5t-9 21.5t-22 8.5zM316 123q-8 -26 -14 -48q-5 -19 -10.5 -37t-7.5 -25t-3 -15t1 -14.5
t9.5 -10.5t21.5 -4h37h67h81h80h64h36q23 0 34 12t2 38q-5 13 -9.5 30.5t-9.5 34.5q-5 19 -11 39h-368zM336 498v228q0 11 2.5 23t10 21.5t20.5 15.5t34 6h188q31 0 51.5 -14.5t20.5 -52.5v-227h-327z" />
    <glyph glyph-name="duihao" unicode="&#xe623;" 
d="M127 316l225 -179l559 515q1 1 4 3.5t11 7t16 6.5t19 0t20 -10q6 -4 9 -12t0.5 -23t-13.5 -31l-584 -684q-2 -2 -5 -6t-14 -11t-21.5 -9.5t-26.5 4t-31 23.5l-252 340q-1 2 -3 5t-5 12.5t-3.5 18.5t4 19.5t15.5 18.5q37 27 76 -8z" />
    <glyph glyph-name="duihaocuohao54" unicode="&#xe615;" 
d="M38 171q6 -2 16.5 -6.5t41 -19t58.5 -31t62.5 -42.5t59.5 -54l168 -186l8.5 17t27 46.5t47 72.5t70 92.5t94.5 110.5q158 172 282 240l13 6q-14 81 -16 149q-2 56 -1.5 100.5t1.5 73.5l1 28q-5 -1 -16 -4.5t-45 -22.5t-70 -48t-89 -88t-104 -134q-81 -121 -135 -217.5
t-68 -133.5l-14 -36l-131 266z" />
    <glyph glyph-name="shangyiqu" unicode="&#xe622;" 
d="M977 676l-298 -172v147q0 16 -14.5 24.5t-28.5 0.5l-571 -330v313q0 9 -6 15t-14 6v0q-9 0 -15 -6t-6 -15v-336v-57v-337q0 -8 6 -14t15 -6v0q8 0 14 6t6 14v313l571 -329q14 -9 28.5 -0.5t14.5 25.5v147l298 -172q15 -9 29.5 -0.5t14.5 25.5v713q0 16 -14.5 24.5
t-29.5 0.5zM638 -26q0 -5 -4 -7.5t-9 -0.5l-555 321q-4 2 -4 7t4 8l555 321q5 2 9 -0.5t4 -7.5v-641zM980 -26q0 -5 -4.5 -7.5t-8.5 -0.5l-288 166v324l288 167q4 2 8.5 -0.5t4.5 -7.5v-641z" />
    <glyph glyph-name="xiayiqu" unicode="&#xe624;" 
d="M68 -87l298 172v-147q0 -17 14.5 -25.5t28.5 0.5l571 329v-313q0 -8 6 -14t14 -6v0q9 0 15 6t6 14v337v57v336q0 9 -6 15t-15 6v0q-8 0 -14 -6t-6 -15v-313l-571 330q-14 8 -28.5 -0.5t-14.5 -24.5v-147l-298 172q-15 8 -29.5 -0.5t-14.5 -24.5v-713q0 -17 14.5 -25.5
t29.5 0.5zM407 615q0 5 4.5 7.5t8.5 0.5l555 -321q5 -3 5 -8t-5 -7l-555 -321q-4 -2 -8.5 0.5t-4.5 7.5v641zM65 615q0 5 4.5 7.5t8.5 0.5l288 -167v-324l-288 -166q-4 -2 -8.5 0.5t-4.5 7.5v641z" />
    <glyph glyph-name="jiahao" unicode="&#xe62e;" 
d="M453 832h120v-387h387v-120h-387v-389h-120v389h-389v120h389v387z" />
    <glyph glyph-name="zanting" unicode="&#xe60f;" 
d="M760 782q8 0 8 -11v-774q0 -11 -8 -11h-99q-8 0 -8 11v774q0 11 8 11h99zM760 839h-99q-27 0 -46 -20t-19 -48v-774q0 -28 19 -48t46 -20h99q27 0 46 20t19 48v774q0 28 -19 48t-46 20v0zM363 782q8 0 8 -11v-774q0 -11 -8 -11h-99q-8 0 -8 11v774q0 11 8 11h99zM363 839
h-99q-27 0 -46 -20t-19 -48v-774q0 -28 19 -48t46 -20h99q27 0 46 20t19 48v774q0 28 -19 48t-46 20v0z" />
    <glyph glyph-name="shangyiye-copy" unicode="&#xe600;" 
d="M283 896q23 0 39 -16l493 -494l-471 -471q-16 -16 -39 -16t-39 16.5t-16 39.5t16 39l393 392l-415 416q-17 16 -17 39t16.5 39t39.5 16z" />
    <glyph glyph-name="wenjian" unicode="&#xe640;" horiz-adv-x="1152" 
d="M1152 612v-627q0 -47 -33.5 -80t-81.5 -33h-922q-48 0 -81.5 33t-33.5 80v555v243q0 47 34 80t82 33h575q48 0 95 -30.5t65 -74.5l28 -66h158q48 0 81.5 -33t33.5 -80v0zM879 668h-38l-15 35l-28 66q-12 28 -44.5 49t-62.5 21h-575q-25 0 -41.5 -16.5t-16.5 -39.5v-243
v-555q0 -23 16.5 -39.5t40.5 -16.5h922q24 0 40.5 16.5t16.5 39.5v627q0 23 -16.5 39.5t-40.5 16.5h-158zM1066 441h28v57h-28h-980h-28v-57h28h980z" />
    <glyph glyph-name="bofang" unicode="&#xe62f;" 
d="M222 -119q-56 0 -92 40q-36 41 -36 105v716q0 64 36 105q36 40 92 40q42 0 84 -24l571 -359q37 -22 57.5 -53.5t21.5 -66.5q0 -75 -81 -121v0l-566 -356q-45 -26 -87 -26zM222 833q-34 0 -54 -25t-20 -66v-716q0 -41 20 -66t54 -25q27 0 59 18v0l566 356q55 32 55 75
t-53 73l-1 1l-570 358q-29 17 -56 17z" />
  </font>
</defs></svg>
