{
  "code" : 1,
  "indexList":[
    {
      "Id" : "1",
      "indexTitle":"下载",
      "indexImg" : "./img/images/a78.png"
    },
    {
      "Id" : "2",
      "indexTitle":"我喜欢",
      "indexImg" : "./img/images/a77.png"
    },
    {
      "Id" : "3",
      "indexTitle":"歌单",
      "indexImg" : "./img/images/a76.png"
    }
  ],
  "indexRecommend":[
    {
      "Id" : "1",
      "indexTitle":"最新榜单",
      "indexImg" : "./img/images/a98.png"
    },
    {
      "Id" : "2",
      "indexTitle":"歌手推荐",
      "indexImg" : "./img/images/a97.png"
    },
    {
      "Id" : "3",
      "indexTitle":"新歌首发",
      "indexImg" : "./img/images/a96.png"
    },
    {
      "Id" : "4",
      "indexTitle":"最新MV",
      "indexImg" : "./img/images/a95.png"
    }
  ],
  "indexClass":[
    {
      "Id" : "1",
      "indexTitle":"Lada",
      "indexImg" : "./img/images/a84_03.png"
    },
    {
      "Id" : "2",
      "indexTitle":"Galary",
      "indexImg" : "./img/images/a86_03.png"
    },
    {
      "Id" : "3",
      "indexTitle":"Adele",
      "indexImg" : "./img/images/a87_03.png"
    },
    {
      "Id" : "4",
      "indexTitle":"Rienty",
      "indexImg" : "./img/images/a88_03.png"
    },
    {
      "Id" : "5",
      "indexTitle":"Rihnan",
      "indexImg" : "./img/images/a89_03.png"
    },
    {
      "Id" : "6",
      "indexTitle":"Perry",
      "indexImg" : "./img/images/a90_22.png"
    },
    {
      "Id" : "7",
      "indexTitle":"Kally",
      "indexImg" : "./img/images/a91_03.png"
    },
    {
      "Id" : "8",
      "indexTitle":"Lenka",
      "indexImg" : "./img/images/a92_03.png"
    }
  ]
}